<?xml version="1.0" encoding="utf-8"?>
<!-- Generator: Adobe Illustrator 16.0.0, SVG Export Plug-In . SVG Version: 6.00 Build 0)  -->
<!DOCTYPE svg PUBLIC "-//W3C//DTD SVG 1.1//EN" "http://www.w3.org/Graphics/SVG/1.1/DTD/svg11.dtd">
<svg version="1.1" id="Selected_Items" xmlns="http://www.w3.org/2000/svg" xmlns:xlink="http://www.w3.org/1999/xlink" x="0px"
	 y="0px" width="136px" height="136px" viewBox="0 0 136 136" enable-background="new 0 0 136 136" xml:space="preserve">
<g>
	
		<linearGradient id="SVGID_1_" gradientUnits="userSpaceOnUse" x1="-289.04" y1="-831.9976" x2="-182.615" y2="-831.9976" gradientTransform="matrix(9.396289e-006 1 -1 -0.0014 -763.995 299.673)">
		<stop  offset="0" style="stop-color:#666666"/>
		<stop  offset="1" style="stop-color:#333333"/>
	</linearGradient>
	<path fill-rule="evenodd" clip-rule="evenodd" fill="url(#SVGID_1_)" d="M123.9,30.751c0.166,1.566,0.25,3.15,0.25,4.75V100.5
		c0,6.533-2.35,12.066-7.049,16.6c-4.533,4.7-10.066,7.05-16.6,7.05h-65c-6.534,0-12.15-2.35-16.85-7.05
		c-4.534-4.533-6.8-10.066-6.8-16.6L11.85,35.501c0-1.6,0.183-3.184,0.55-4.75c0.8-4.533,2.883-8.566,6.25-12.1
		c4.7-4.533,10.316-6.8,16.85-6.8h65c6.533,0,12.066,2.267,16.6,6.8C120.633,22.185,122.9,26.218,123.9,30.751z M117.65,30.751
		c-0.768-2.967-2.334-5.633-4.701-8c-3.365-3.333-7.516-5-12.449-5h-65c-4.933,0-9.183,1.667-12.75,5
		c-2.167,2.367-3.633,5.033-4.399,8c-0.4,1.566-0.6,3.15-0.6,4.75l0.001,64.999c0,4.934,1.667,9.083,5,12.45
		c3.566,3.533,7.816,5.3,12.75,5.3h65c5.133,0,9.283-1.767,12.449-5.3c3.533-3.167,5.301-7.316,5.301-12.45l-0.002-64.999
		C118.25,33.901,118.051,32.317,117.65,30.751z"/>
	
		<linearGradient id="SVGID_2_" gradientUnits="userSpaceOnUse" x1="-282.2422" y1="-832.4766" x2="-187.6416" y2="-832.4766" gradientTransform="matrix(-0.0016 1 -1 1.057084e-005 -764.8443 300.0018)">
		<stop  offset="0" style="stop-color:#666666"/>
		<stop  offset="1" style="stop-color:#333333"/>
	</linearGradient>
	<path fill-rule="evenodd" clip-rule="evenodd" fill="url(#SVGID_2_)" d="M117.65,30.751c0.4,1.566,0.6,3.15,0.6,4.75l0.002,64.999
		c0,5.134-1.768,9.283-5.301,12.45c-3.166,3.533-7.316,5.3-12.449,5.3h-65c-4.934,0-9.184-1.767-12.75-5.3
		c-3.333-3.367-5-7.517-5-12.45L17.75,35.501c0-1.6,0.2-3.184,0.6-4.75c0.767-2.967,2.233-5.633,4.399-8
		c3.567-3.333,7.817-5,12.75-5h65c4.934,0,9.084,1.667,12.449,5C115.316,25.118,116.883,27.784,117.65,30.751z"/>
	<linearGradient id="SVGID_3_" gradientUnits="userSpaceOnUse" x1="68.001" y1="130.0879" x2="68.001" y2="0.0134">
		<stop  offset="0" style="stop-color:#666666"/>
		<stop  offset="1" style="stop-color:#333333"/>
	</linearGradient>
	<path fill-rule="evenodd" clip-rule="evenodd" fill="url(#SVGID_3_)" d="M136,35.501l0.002,64.999
		c0,9.866-3.451,18.25-10.35,25.149l-0.301,0.3c-6.9,6.7-15.184,10.051-24.85,10.051h-65c-9.667,0-17.95-3.351-24.85-10.051
		l-0.3-0.3c-6.9-6.899-10.35-15.283-10.351-25.149L0,35.501c0-1.6,0.1-3.184,0.3-4.75c0.967-7.899,4.316-14.699,10.05-20.399
		c6.9-6.9,15.283-10.35,25.15-10.35h65c9.865,0,18.25,3.449,25.15,10.35c5.732,5.7,9.082,12.5,10.049,20.399
		C135.9,32.317,136,33.901,136,35.501z M130.1,35.501c0-1.6-0.1-3.184-0.299-4.75c-1.002-6.1-3.867-11.517-8.602-16.25
		c-5.699-5.732-12.6-8.6-20.699-8.6h-65c-8.1,0-15.1,2.867-21,8.6c-4.533,4.733-7.3,10.15-8.3,16.25c-0.2,1.566-0.3,3.15-0.3,4.75
		L5.901,100.5c0,8.1,2.867,15,8.601,20.7c1.966,1.966,3.933,3.55,5.9,4.749c4.534,2.767,9.567,4.15,15.1,4.15h65
		c5.732,0,10.766-1.384,15.1-4.15c1.967-1.199,3.834-2.783,5.6-4.749c5.934-5.5,8.9-12.4,8.9-20.7L130.1,35.501z"/>
</g>
<polygon fill-rule="evenodd" clip-rule="evenodd" fill="#C0C0C0" points="46.9,42.301 95.1,67.95 46.851,93.65 46.85,42.301 "/>
</svg>
